/Users/aeciolima/Projects/hands/backend/hackernews-graphql-java/src/main/java/com/hands/api/models/Position.java
/Users/aeciolima/Projects/hands/backend/hackernews-graphql-java/src/main/java/com/hands/api/Query.java
/Users/aeciolima/Projects/hands/backend/hackernews-graphql-java/src/main/java/com/hands/api/models/Track.java
/Users/aeciolima/Projects/hands/backend/hackernews-graphql-java/src/main/java/com/hands/api/TrackResolver.java
/Users/aeciolima/Projects/hands/backend/hackernews-graphql-java/src/main/java/com/hands/api/SanitizedError.java
/Users/aeciolima/Projects/hands/backend/hackernews-graphql-java/src/main/java/com/hands/api/filters/TrackFilter.java
/Users/aeciolima/Projects/hands/backend/hackernews-graphql-java/src/main/java/com/hands/api/Scalars.java
/Users/aeciolima/Projects/hands/backend/hackernews-graphql-java/src/main/java/com/hands/api/repository/TrackRepository.java
/Users/aeciolima/Projects/hands/backend/hackernews-graphql-java/src/main/java/com/hands/api/GraphQLEndpoint.java
